<svg id="b15454c1-d0a3-47c0-95b3-d66cc8b9f015" data-name="Layer 1" xmlns="http://www.w3.org/2000/svg" viewBox="0 0 36 36">
  <defs>
    <style>
      .b21c346e-2a84-4947-b4de-ce11904dca62 {
        fill: #fff;
      }
    </style>
  </defs>
  <title>Icon-Red_Hat-API-A-White-RGB</title>
  <g>
    <path class="b21c346e-2a84-4947-b4de-ce11904dca62" d="M10.53,10.47a.676.676,0,0,0-.115-.094.75.75,0,0,0-.128-.068.829.829,0,0,0-.139-.043A.721.721,0,0,0,10,10.25H8.633a2.775,2.775,0,0,0-.969-1.431A2.706,2.706,0,0,0,6,8.25a2.75,2.75,0,0,0,0,5.5,2.706,2.706,0,0,0,1.664-.569,2.775,2.775,0,0,0,.969-1.431H9.689l.891.89.89.89a.75.75,0,1,0,1.06-1.06l-1-1ZM6,12.25a1.25,1.25,0,1,1,.884-.366A1.249,1.249,0,0,1,6,12.25Z"/>
    <path class="b21c346e-2a84-4947-b4de-ce11904dca62" d="M24,13.75a.747.747,0,0,0,.53-.22l.89-.89.891-.89h1.056a2.775,2.775,0,0,0,.969,1.431A2.706,2.706,0,0,0,30,13.75a2.75,2.75,0,0,0,0-5.5,2.706,2.706,0,0,0-1.664.569,2.775,2.775,0,0,0-.969,1.431H26a.721.721,0,0,0-.148.015.829.829,0,0,0-.139.043.75.75,0,0,0-.128.068.676.676,0,0,0-.115.094l-1,1-1,1A.75.75,0,0,0,24,13.75Zm6-4a1.25,1.25,0,1,1-.884.366A1.249,1.249,0,0,1,30,9.75Z"/>
    <path class="b21c346e-2a84-4947-b4de-ce11904dca62" d="M11.47,22.47l-.89.89-.891.89H8.633a2.775,2.775,0,0,0-.969-1.431A2.706,2.706,0,0,0,6,22.25a2.75,2.75,0,0,0,0,5.5,2.706,2.706,0,0,0,1.664-.569,2.775,2.775,0,0,0,.969-1.431H10a.721.721,0,0,0,.148-.015.829.829,0,0,0,.139-.043.75.75,0,0,0,.128-.068.676.676,0,0,0,.115-.094l1-1,1-1a.75.75,0,1,0-1.06-1.06ZM6,26.25a1.25,1.25,0,1,1,.884-.366A1.249,1.249,0,0,1,6,26.25Z"/>
    <path class="b21c346e-2a84-4947-b4de-ce11904dca62" d="M12,17.25H8.75V16A.751.751,0,0,0,8,15.25H4a.751.751,0,0,0-.75.75v4a.751.751,0,0,0,.75.75H8A.751.751,0,0,0,8.75,20V18.75H12a.75.75,0,0,0,0-1.5Zm-4.75,2H4.75v-2.5h2.5v2.5Z"/>
    <path class="b21c346e-2a84-4947-b4de-ce11904dca62" d="M30,22.25a2.706,2.706,0,0,0-1.664.569,2.775,2.775,0,0,0-.969,1.431H26.311l-.891-.89-.89-.89a.75.75,0,1,0-1.06,1.06l1,1,1,1a.676.676,0,0,0,.115.094.75.75,0,0,0,.128.068.829.829,0,0,0,.139.043A.721.721,0,0,0,26,25.75h1.367a2.775,2.775,0,0,0,.969,1.431A2.706,2.706,0,0,0,30,27.75a2.75,2.75,0,0,0,0-5.5Zm0,4a1.25,1.25,0,1,1,.884-.366A1.249,1.249,0,0,1,30,26.25Z"/>
    <path class="b21c346e-2a84-4947-b4de-ce11904dca62" d="M32,15.25H28a.751.751,0,0,0-.75.75v1.25H24a.75.75,0,0,0,0,1.5h3.25V20a.751.751,0,0,0,.75.75h4a.751.751,0,0,0,.75-.75V16a.751.751,0,0,0-.75-.75Zm-.75,4h-2.5v-2.5h2.5v2.5Z"/>
    <path class="b21c346e-2a84-4947-b4de-ce11904dca62" d="M22,13.25H14a.751.751,0,0,0-.75.75v8a.751.751,0,0,0,.75.75h8a.751.751,0,0,0,.75-.75V14a.751.751,0,0,0-.75-.75Zm-.75,8h-6.5v-6.5h6.5v6.5Z"/>
  </g>
</svg>
