<svg id="b9681b4f-6f99-4918-9635-3390c0b8efdf" data-name="Layer 1" xmlns="http://www.w3.org/2000/svg" viewBox="0 0 36 36">
  <defs>
    <style>
      .fb7d9faf-1047-4d5d-ad7c-3512bea30b85 {
        fill: #fff;
      }
    </style>
  </defs>
  <title>Icon-Red_Hat-Grooming-A-White-RGB</title>
  <g>
    <path class="fb7d9faf-1047-4d5d-ad7c-3512bea30b85" d="M29.458,24.809a3.836,3.836,0,0,0,.94-1.241A3.655,3.655,0,0,0,30.75,22a3.75,3.75,0,0,0-7.5,0,3.655,3.655,0,0,0,.352,1.568,3.836,3.836,0,0,0,.94,1.241q-.27.129-.525.284t-.491.336a5.772,5.772,0,0,0-3.068-3.62,3.836,3.836,0,0,0,.94-1.241A3.655,3.655,0,0,0,21.75,19a3.75,3.75,0,0,0-7.5,0,3.655,3.655,0,0,0,.352,1.568,3.836,3.836,0,0,0,.94,1.241,5.772,5.772,0,0,0-3.068,3.62q-.237-.18-.491-.336t-.525-.284a3.836,3.836,0,0,0,.94-1.241A3.655,3.655,0,0,0,12.75,22a3.75,3.75,0,0,0-7.5,0A3.655,3.655,0,0,0,5.6,23.568a3.836,3.836,0,0,0,.94,1.241,5.8,5.8,0,0,0-2.374,2.083A5.693,5.693,0,0,0,3.25,30a.751.751,0,0,0,.75.75H32a.751.751,0,0,0,.75-.75,5.693,5.693,0,0,0-.918-3.108A5.8,5.8,0,0,0,29.458,24.809ZM24.75,22a2.253,2.253,0,1,1,.66,1.59A2.24,2.24,0,0,1,24.75,22Zm-9-3a2.253,2.253,0,1,1,.66,1.59A2.24,2.24,0,0,1,15.75,19ZM18,22.75a4.206,4.206,0,0,1,2.926,1.18,4.257,4.257,0,0,1,1.3,2.864,5.7,5.7,0,0,0-.6,1.161,5.755,5.755,0,0,0-.324,1.3H14.7a5.755,5.755,0,0,0-.324-1.3,5.7,5.7,0,0,0-.6-1.161,4.257,4.257,0,0,1,1.3-2.864A4.206,4.206,0,0,1,18,22.75ZM6.75,22a2.253,2.253,0,1,1,.66,1.59A2.24,2.24,0,0,1,6.75,22ZM4.826,29.25a4.263,4.263,0,0,1,1.438-2.5,4.227,4.227,0,0,1,5.472,0,4.263,4.263,0,0,1,1.438,2.5H4.826Zm18,0a4.263,4.263,0,0,1,1.438-2.5,4.227,4.227,0,0,1,5.472,0,4.263,4.263,0,0,1,1.438,2.5H22.826Z"/>
    <path class="fb7d9faf-1047-4d5d-ad7c-3512bea30b85" d="M6,15.75h6a.751.751,0,0,0,.75-.75V9A.751.751,0,0,0,12,8.25H6A.751.751,0,0,0,5.25,9v6a.751.751,0,0,0,.75.75Zm.75-6h4.5v4.5H6.75V9.75Z"/>
    <path class="fb7d9faf-1047-4d5d-ad7c-3512bea30b85" d="M24,15.75h6a.751.751,0,0,0,.75-.75V9A.751.751,0,0,0,30,8.25H24a.751.751,0,0,0-.75.75v6a.751.751,0,0,0,.75.75Zm.75-6h4.5v4.5h-4.5V9.75Z"/>
    <path class="fb7d9faf-1047-4d5d-ad7c-3512bea30b85" d="M15,12.75h6a.751.751,0,0,0,.75-.75V6A.751.751,0,0,0,21,5.25H15a.751.751,0,0,0-.75.75v6a.751.751,0,0,0,.75.75Zm.75-6h4.5v4.5h-4.5V6.75Z"/>
  </g>
</svg>
