<svg id="a5838d3c-f4d9-4a70-a844-de31816a7c2c" data-name="Layer 1" xmlns="http://www.w3.org/2000/svg" viewBox="0 0 36 36">
  <defs>
    <style>
      .b504c743-aeb6-4c9d-b754-de4dc1933d7f {
        fill: #fff;
      }
    </style>
  </defs>
  <title>Icon-Red_Hat-Gitops-A-White-RGB</title>
  <g>
    <path class="b504c743-aeb6-4c9d-b754-de4dc1933d7f" d="M28.48,22.026a.773.773,0,0,0,.242.162.754.754,0,0,0,.575,0,.778.778,0,0,0,.243-.162.739.739,0,0,0,.091-.113.922.922,0,0,0,.069-.128.682.682,0,0,0,.045-.141.746.746,0,0,0,.015-.149.676.676,0,0,0-.015-.144.7.7,0,0,0-.045-.136.824.824,0,0,0-.069-.136.66.66,0,0,0-.091-.114.774.774,0,0,0-1.06,0,.885.885,0,0,0-.1.114.7.7,0,0,0-.073.136.941.941,0,0,0-.036.136.748.748,0,0,0-.014.144.826.826,0,0,0,.014.149.91.91,0,0,0,.036.141.77.77,0,0,0,.073.128A1.034,1.034,0,0,0,28.48,22.026Z"/>
    <path class="b504c743-aeb6-4c9d-b754-de4dc1933d7f" d="M32,17.25H4a.751.751,0,0,0-.75.75v7a.751.751,0,0,0,.75.75H32a.751.751,0,0,0,.75-.75V18a.751.751,0,0,0-.75-.75Zm-.75,7H4.75v-5.5h26.5v5.5Z"/>
    <path class="b504c743-aeb6-4c9d-b754-de4dc1933d7f" d="M7,22.25h4a.75.75,0,0,0,0-1.5H7a.75.75,0,0,0,0,1.5Z"/>
    <path class="b504c743-aeb6-4c9d-b754-de4dc1933d7f" d="M14.642,13.846a.751.751,0,0,0,.53.219.75.75,0,0,0,.531-1.28l-.735-.735-.735-.735.735-.734.735-.735a.75.75,0,1,0-1.061-1.061l-1,1-1,1a.75.75,0,0,0,0,1.061l1,1Z"/>
    <path class="b504c743-aeb6-4c9d-b754-de4dc1933d7f" d="M20.371,13.846a.73.73,0,0,0,.248.164.751.751,0,0,0,.812-.164l1-1,1-1a.75.75,0,0,0,0-1.061l-1-1-1-1a.75.75,0,1,0-1.06,1.061l.734.735.735.734-.735.735-.734.735a.75.75,0,0,0,0,1.061Z"/>
    <path class="b504c743-aeb6-4c9d-b754-de4dc1933d7f" d="M17.007,15.368a.594.594,0,0,0,.092.017.68.68,0,0,0,.09.006.753.753,0,0,0,.728-.569l.811-3.243.811-3.244a.751.751,0,0,0-1.115-.825.754.754,0,0,0-.341.462l-.811,3.243-.811,3.244a.751.751,0,0,0,.546.909Z"/>
  </g>
</svg>
