<svg id="b3026cf0-dd21-4dc4-bd53-5b30840ce1b8" data-name="Layer 1" xmlns="http://www.w3.org/2000/svg" viewBox="0 0 36 36">
  <defs>
    <style>
      .b325b76d-4924-4fcb-a45d-457b97f0edaf {
        fill: #fff;
      }
    </style>
  </defs>
  <title>Icon-Red_Hat-Container_Registry-A-White-RGB</title>
  <g>
    <path class="b325b76d-4924-4fcb-a45d-457b97f0edaf" d="M14.436,30.258h-8.7V5.742h8.705a.75.75,0,0,0,0-1.5H4.981a.751.751,0,0,0-.75.75V31.008a.751.751,0,0,0,.75.75h9.455a.75.75,0,0,0,0-1.5Z"/>
    <path class="b325b76d-4924-4fcb-a45d-457b97f0edaf" d="M31.747,4.991A.749.749,0,0,0,31,4.242H21.543a.75.75,0,0,0,0,1.5h8.705l.01,7.817.011,7.817a.651.651,0,0,0-.017.088.869.869,0,0,0,0,.089v8.7h-8.7a.75.75,0,0,0,0,1.5H31a.751.751,0,0,0,.75-.75v-9.3a.649.649,0,0,0,.016-.088.684.684,0,0,0,.006-.091l-.011-8.27Z"/>
    <path class="b325b76d-4924-4fcb-a45d-457b97f0edaf" d="M17.375,19.456l-2.074-1.2-2.074-1.2a.747.747,0,0,0-.75,0l-2.075,1.2-2.074,1.2a.745.745,0,0,0-.275.274.756.756,0,0,0-.1.375V24.9a.756.756,0,0,0,.1.375.745.745,0,0,0,.275.274l2.074,1.2,2.075,1.2a.748.748,0,0,0,.567.076.763.763,0,0,0,.183-.076l2.074-1.2,2.074-1.2a.745.745,0,0,0,.275-.274.756.756,0,0,0,.1-.375v-4.79a.756.756,0,0,0-.1-.375A.745.745,0,0,0,17.375,19.456ZM16.25,24.462l-1.7.981-1.7.981-1.7-.981-1.7-.981V20.538l1.7-.981,1.7-.981,1.7.981,1.7.981v3.924Z"/>
    <path class="b325b76d-4924-4fcb-a45d-457b97f0edaf" d="M23.148,28.04a.737.737,0,0,0,.375-.1l2.075-1.2,2.074-1.2a.745.745,0,0,0,.275-.274.756.756,0,0,0,.1-.375v-4.79a.756.756,0,0,0-.1-.375.745.745,0,0,0-.275-.274l-2.074-1.2-2.075-1.2a.747.747,0,0,0-.75,0l-2.074,1.2-2.074,1.2a.745.745,0,0,0-.275.274.756.756,0,0,0-.1.375V24.9a.756.756,0,0,0,.1.375.745.745,0,0,0,.275.274l2.074,1.2,2.074,1.2a.763.763,0,0,0,.183.076A.733.733,0,0,0,23.148,28.04Zm-3.4-7.5,1.7-.981,1.7-.981,1.7.981,1.7.981v3.924l-1.7.981-1.7.981-1.7-.981-1.7-.981V20.538Z"/>
    <path class="b325b76d-4924-4fcb-a45d-457b97f0edaf" d="M22.75,15.9v-4.79a.756.756,0,0,0-.1-.375.745.745,0,0,0-.275-.274L20.3,9.258l-2.074-1.2a.747.747,0,0,0-.75,0L15.4,9.258l-2.074,1.2a.745.745,0,0,0-.275.274.756.756,0,0,0-.1.375V15.9a.756.756,0,0,0,.1.375.745.745,0,0,0,.275.274l2.074,1.2,2.075,1.2a.748.748,0,0,0,.567.076.763.763,0,0,0,.183-.076l2.074-1.2,2.074-1.2a.745.745,0,0,0,.275-.274A.756.756,0,0,0,22.75,15.9Zm-1.5-.433-1.7.981-1.7.981-1.7-.981-1.7-.981V11.538l1.7-.981,1.7-.981,1.7.981,1.7.981v3.924Z"/>
  </g>
</svg>
